net\snuckdev\archaicreparar\runnable\BlacksmithRunnable$1.class
net\snuckdev\archaicreparar\items\ItemBuilder.class
net\snuckdev\archaicreparar\utils\ConfigUtils.class
net\snuckdev\archaicreparar\listeners\BlacksmithListener.class
net\snuckdev\archaicreparar\commands\SetBlacksmithCommand.class
net\snuckdev\archaicreparar\utils\Percentage.class
net\snuckdev\archaicreparar\runnable\BlacksmithRunnable.class
net\snuckdev\archaicreparar\utils\CommentYamlConfiguration.class
net\snuckdev\archaicreparar\items\SkullBuilder.class
net\snuckdev\archaicreparar\utils\NoAI.class
net\snuckdev\archaicreparar\Main.class
net\snuckdev\archaicreparar\items\ItemSpecification.class
net\snuckdev\archaicreparar\utils\CommentYamlConfiguration$JavaPlugin.class
